{"artists": {"href": "https://api.spotify.com/v1/search?query=genre%3Apop&type=artist&offset=0&limit=25", "items": [{"external_urls": {"spotify": "https://open.spotify.com/artist/06HL4z0CvFAxyc27GXpf02"}, "followers": {"href": null, "total": 63584715}, "genres": ["pop"], "href": "https://api.spotify.com/v1/artists/06HL4z0CvFAxyc27GXpf02", "id": "06HL4z0CvFAxyc27GXpf02", "images": [{"height": 640, "url": "https://i.scdn.co/image/ab6761610000e5eb5a00969a4698c3132a15fbb0", "width": 640}, {"height": 320, "url": "https://i.scdn.co/image/ab676161000051745a00969a4698c3132a15fbb0", "width": 320}, {"height": 160, "url": "https://i.scdn.co/image/ab6761610000f1785a00969a4698c3132a15fbb0", "width": 160}], "name": "Taylor Swift", "popularity": 100, "type": "artist", "uri": "spotify:artist:06HL4z0CvFAxyc27GXpf02"}, {"external_urls": {"spotify": "https://open.spotify.com/artist/3TVXtAsR1Inumwj472S9r4"}, "followers": {"href": null, "total": 69564318}, "genres": ["canadian hip hop", "canadian pop", "hip hop", "rap", "toronto rap"], "href": "https://api.spotify.com/v1/artists/3TVXtAsR1Inumwj472S9r4", "id": "3TVXtAsR1Inumwj472S9r4", "images": [{"height": 640, "url": "https://i.scdn.co/image/ab6761610000e5eb4293385d324db8558179afd9", "width": 640}, {"height": 320, "url": "https://i.scdn.co/image/ab676161000051744293385d324db8558179afd9", "width": 320}, {"height": 160, "url": "https://i.scdn.co/image/ab6761610000f1784293385d324db8558179afd9", "width": 160}], "name": "Drake", "popularity": 97, "type": "artist", "uri": "spotify:artist:3TVXtAsR1Inumwj472S9r4"}, {"external_urls": {"spotify": "https://open.spotify.com/artist/1Xyo4u8uXC1ZmMpatF05PJ"}, "followers": {"href": null, "total": 53926378}, "genres": ["canadian contemporary r&b", "canadian pop", "pop"], "href": "https://api.spotify.com/v1/artists/1Xyo4u8uXC1ZmMpatF05PJ", "id": "1Xyo4u8uXC1ZmMpatF05PJ", "images": [{"height": 640, "url": "https://i.scdn.co/image/ab6761610000e5ebb5f9e28219c169fd4b9e8379", "width": 640}, {"height": 320, "url": "https://i.scdn.co/image/ab67616100005174b5f9e28219c169fd4b9e8379", "width": 320}, {"height": 160, "url": "https://i.scdn.co/image/ab6761610000f178b5f9e28219c169fd4b9e8379", "width": 160}], "name": "The Weeknd", "popularity": 95, "type": "artist", "uri": "spotify:artist:1Xyo4u8uXC1ZmMpatF05PJ"}, {"external_urls": {"spotify": "https://open.spotify.com/artist/66CXWjxzNUsdJxJ2JdwvnR"}, "followers": {"href": null, "total": 85530765}, "genres": ["dance pop", "pop"], "href": "https://api.spotify.com/v1/artists/66CXWjxzNUsdJxJ2JdwvnR", "id": "66CXWjxzNUsdJxJ2JdwvnR", "images": [{"height": 640, "url": "https://i.scdn.co/image/ab6761610000e5ebcdce7620dc940db079bf4952", "width": 640}, {"height": 320, "url": "https://i.scdn.co/image/ab67616100005174cdce7620dc940db079bf4952", "width": 320}, {"height": 160, "url": "https://i.scdn.co/image/ab6761610000f178cdce7620dc940db079bf4952", "width": 160}], "name": "Ariana Grande", "popularity": 90, "type": "artist", "uri": "spotify:artist:66CXWjxzNUsdJxJ2JdwvnR"}, {"external_urls": {"spotify": "https://open.spotify.com/artist/5pKCCKE2ajJHZ9KAiaK11H"}, "followers": {"href": null, "total": 51347059}, "genres": ["barbadian pop", "dance pop", "pop", "urban contemporary"], "href": "https://api.spotify.com/v1/artists/5pKCCKE2ajJHZ9KAiaK11H", "id": "5pKCCKE2ajJHZ9KAiaK11H", "images": [{"height": 640, "url": "https://i.scdn.co/image/ab6761610000e5eb99e4fca7c0b7cb166d915789", "width": 640}, {"height": 320, "url": "https://i.scdn.co/image/ab6761610000517499e4fca7c0b7cb166d915789", "width": 320}, {"height": 160, "url": "https://i.scdn.co/image/ab6761610000f17899e4fca7c0b7cb166d915789", "width": 160}], "name": "Rihanna", "popularity": 89, "type": "artist", "uri": "spotify:artist:5pKCCKE2ajJHZ9KAiaK11H"}, {"external_urls": {"spotify": "https://open.spotify.com/artist/00FQb4jTyendYWaN8pK0wa"}, "followers": {"href": null, "total": 19210302}, "genres": ["art pop", "pop"], "href": "https://api.spotify.com/v1/artists/00FQb4jTyendYWaN8pK0wa", "id": "00FQb4jTyendYWaN8pK0wa", "images": [{"height": 640, "url": "https://i.scdn.co/image/ab6761610000e5ebb99cacf8acd5378206767261", "width": 640}, {"height": 320, "url": "https://i.scdn.co/image/ab67616100005174b99cacf8acd5378206767261", "width": 320}, {"height": 160, "url": "https://i.scdn.co/image/ab6761610000f178b99cacf8acd5378206767261", "width": 160}], "name": "Lana Del Rey", "popularity": 89, "type": "artist", "uri": "spotify:artist:00FQb4jTyendYWaN8pK0wa"}, {"external_urls": {"spotify": "https://open.spotify.com/artist/7bXgB6jMjp9ATFy66eO08Z"}, "followers": {"href": null, "total": 17720104}, "genres": ["dance pop", "pop", "r&b"], "href": "https://api.spotify.com/v1/artists/7bXgB6jMjp9ATFy66eO08Z", "id": "7bXgB6jMjp9ATFy66eO08Z", "images": [{"height": 640, "url": "https://i.scdn.co/image/ab6761610000e5ebe50aa80e0f5869f84f6874d1", "width": 640}, {"height": 320, "url": "https://i.scdn.co/image/ab67616100005174e50aa80e0f5869f84f6874d1", "width": 320}, {"height": 160, "url": "https://i.scdn.co/image/ab6761610000f178e50aa80e0f5869f84f6874d1", "width": 160}], "name": "Chris Brown", "popularity": 88, "type": "artist", "uri": "spotify:artist:7bXgB6jMjp9ATFy66eO08Z"}, {"external_urls": {"spotify": "https://open.spotify.com/artist/6KImCVD70vtIoJWnq6nGn3"}, "followers": {"href": null, "total": 24764216}, "genres": ["pop"], "href": "https://api.spotify.com/v1/artists/6KImCVD70vtIoJWnq6nGn3", "id": "6KImCVD70vtIoJWnq6nGn3", "images": [{"height": 640, "url": "https://i.scdn.co/image/ab6761610000e5ebf7db7c8ede90a019c54590bb", "width": 640}, {"height": 320, "url": "https://i.scdn.co/image/ab67616100005174f7db7c8ede90a019c54590bb", "width": 320}, {"height": 160, "url": "https://i.scdn.co/image/ab6761610000f178f7db7c8ede90a019c54590bb", "width": 160}], "name": "Harry Styles", "popularity": 90, "type": "artist", "uri": "spotify:artist:6KImCVD70vtIoJWnq6nGn3"}, {"external_urls": {"spotify": "https://open.spotify.com/artist/1uNFoZAHBGtllmzznpCI3s"}, "followers": {"href": null, "total": 68059441}, "genres": ["canadian pop", "pop"], "href": "https://api.spotify.com/v1/artists/1uNFoZAHBGtllmzznpCI3s", "id": "1uNFoZAHBGtllmzznpCI3s", "images": [{"height": 640, "url": "https://i.scdn.co/image/ab6761610000e5eb8ae7f2aaa9817a704a87ea36", "width": 640}, {"height": 320, "url": "https://i.scdn.co/image/ab676161000051748ae7f2aaa9817a704a87ea36", "width": 320}, {"height": 160, "url": "https://i.scdn.co/image/ab6761610000f1788ae7f2aaa9817a704a87ea36", "width": 160}], "name": "Justin Bieber", "popularity": 90, "type": "artist", "uri": "spotify:artist:1uNFoZAHBGtllmzznpCI3s"}, {"external_urls": {"spotify": "https://open.spotify.com/artist/5cj0lLjcoR7YOSnhnX0Po5"}, "followers": {"href": null, "total": 23335738}, "genres": ["dance pop", "pop"], "href": "https://api.spotify.com/v1/artists/5cj0lLjcoR7YOSnhnX0Po5", "id": "5cj0lLjcoR7YOSnhnX0Po5", "images": [{"height": 640, "url": "https://i.scdn.co/image/ab6761610000e5eb727a2ac15afe659be999beba", "width": 640}, {"height": 320, "url": "https://i.scdn.co/image/ab67616100005174727a2ac15afe659be999beba", "width": 320}, {"height": 160, "url": "https://i.scdn.co/image/ab6761610000f178727a2ac15afe659be999beba", "width": 160}], "name": "Doja Cat", "popularity": 87, "type": "artist", "uri": "spotify:artist:5cj0lLjcoR7YOSnhnX0Po5"}, {"external_urls": {"spotify": "https://open.spotify.com/artist/0hCNtLu0JehylgoiP8L4Gh"}, "followers": {"href": null, "total": 26729705}, "genres": ["dance pop", "hip pop", "pop", "queens hip hop", "rap"], "href": "https://api.spotify.com/v1/artists/0hCNtLu0JehylgoiP8L4Gh", "id": "0hCNtLu0JehylgoiP8L4Gh", "images": [{"height": 640, "url": "https://i.scdn.co/image/ab6761610000e5eb6a8e5e8752d1dc2dafa63f20", "width": 640}, {"height": 320, "url": "https://i.scdn.co/image/ab676161000051746a8e5e8752d1dc2dafa63f20", "width": 320}, {"height": 160, "url": "https://i.scdn.co/image/ab6761610000f1786a8e5e8752d1dc2dafa63f20", "width": 160}], "name": "Nicki Minaj", "popularity": 86, "type": "artist", "uri": "spotify:artist:0hCNtLu0JehylgoiP8L4Gh"}, {"external_urls": {"spotify": "https://open.spotify.com/artist/6qqNVTkY8uBg9cP3Jd7DAH"}, "followers": {"href": null, "total": 73001993}, "genres": ["art pop", "electropop", "pop"], "href": "https://api.spotify.com/v1/artists/6qqNVTkY8uBg9cP3Jd7DAH", "id": "6qqNVTkY8uBg9cP3Jd7DAH", "images": [{"height": 640, "url": "https://i.scdn.co/image/ab6761610000e5ebd8b9980db67272cb4d2c3daf", "width": 640}, {"height": 320, "url": "https://i.scdn.co/image/ab67616100005174d8b9980db67272cb4d2c3daf", "width": 320}, {"height": 160, "url": "https://i.scdn.co/image/ab6761610000f178d8b9980db67272cb4d2c3daf", "width": 160}], "name": "Billie Eilish", "popularity": 88, "type": "artist", "uri": "spotify:artist:6qqNVTkY8uBg9cP3Jd7DAH"}, {"external_urls": {"spotify": "https://open.spotify.com/artist/55Aa2cqylxrFIXC767Z865"}, "followers": {"href": null, "total": 12885356}, "genres": ["hip hop", "new orleans rap", "pop rap", "rap", "trap"], "href": "https://api.spotify.com/v1/artists/55Aa2cqylxrFIXC767Z865", "id": "55Aa2cqylxrFIXC767Z865", "images": [{"height": 640, "url": "https://i.scdn.co/image/ab6761610000e5ebc63aded6f4bf4d06d1377106", "width": 640}, {"height": 320, "url": "https://i.scdn.co/image/ab67616100005174c63aded6f4bf4d06d1377106", "width": 320}, {"height": 160, "url": "https://i.scdn.co/image/ab6761610000f178c63aded6f4bf4d06d1377106", "width": 160}], "name": "Lil Wayne", "popularity": 85, "type": "artist", "uri": "spotify:artist:55Aa2cqylxrFIXC767Z865"}, {"external_urls": {"spotify": "https://open.spotify.com/artist/0du5cEVh5yTK9QJze8zA0C"}, "followers": {"href": null, "total": 44774485}, "genres": ["dance pop", "pop"], "href": "https://api.spotify.com/v1/artists/0du5cEVh5yTK9QJze8zA0C", "id": "0du5cEVh5yTK9QJze8zA0C", "images": [{"height": 640, "url": "https://i.scdn.co/image/ab6761610000e5ebc36dd9eb55fb0db4911f25dd", "width": 640}, {"height": 320, "url": "https://i.scdn.co/image/ab67616100005174c36dd9eb55fb0db4911f25dd", "width": 320}, {"height": 160, "url": "https://i.scdn.co/image/ab6761610000f178c36dd9eb55fb0db4911f25dd", "width": 160}], "name": "Bruno Mars", "popularity": 88, "type": "artist", "uri": "spotify:artist:0du5cEVh5yTK9QJze8zA0C"}, {"external_urls": {"spotify": "https://open.spotify.com/artist/3MZsBdqDrRTJihTHQrO6Dq"}, "followers": {"href": null, "total": 7533236}, "genres": ["viral pop"], "href": "https://api.spotify.com/v1/artists/3MZsBdqDrRTJihTHQrO6Dq", "id": "3MZsBdqDrRTJihTHQrO6Dq", "images": [{"height": 640, "url": "https://i.scdn.co/image/ab6761610000e5eb4111c95b5f430c3265c7304b", "width": 640}, {"height": 320, "url": "https://i.scdn.co/image/ab676161000051744111c95b5f430c3265c7304b", "width": 320}, {"height": 160, "url": "https://i.scdn.co/image/ab6761610000f1784111c95b5f430c3265c7304b", "width": 160}], "name": "Joji", "popularity": 86, "type": "artist", "uri": "spotify:artist:3MZsBdqDrRTJihTHQrO6Dq"}, {"external_urls": {"spotify": "https://open.spotify.com/artist/7tYKF4w9nC0nq9CsPZTHyP"}, "followers": {"href": null, "total": 8989508}, "genres": ["pop", "r&b", "rap"], "href": "https://api.spotify.com/v1/artists/7tYKF4w9nC0nq9CsPZTHyP", "id": "7tYKF4w9nC0nq9CsPZTHyP", "images": [{"height": 640, "url": "https://i.scdn.co/image/ab6761610000e5eb7eb7f6371aad8e67e01f0a03", "width": 640}, {"height": 320, "url": "https://i.scdn.co/image/ab676161000051747eb7f6371aad8e67e01f0a03", "width": 320}, {"height": 160, "url": "https://i.scdn.co/image/ab6761610000f1787eb7f6371aad8e67e01f0a03", "width": 160}], "name": "SZA", "popularity": 84, "type": "artist", "uri": "spotify:artist:7tYKF4w9nC0nq9CsPZTHyP"}, {"external_urls": {"spotify": "https://open.spotify.com/artist/3Nrfpe0tUJi4K4DXYWgMUX"}, "followers": {"href": null, "total": 58407816}, "genres": ["k-pop", "k-pop boy group"], "href": "https://api.spotify.com/v1/artists/3Nrfpe0tUJi4K4DXYWgMUX", "id": "3Nrfpe0tUJi4K4DXYWgMUX", "images": [{"height": 640, "url": "https://i.scdn.co/image/ab6761610000e5eb5704a64f34fe29ff73ab56bb", "width": 640}, {"height": 320, "url": "https://i.scdn.co/image/ab676161000051745704a64f34fe29ff73ab56bb", "width": 320}, {"height": 160, "url": "https://i.scdn.co/image/ab6761610000f1785704a64f34fe29ff73ab56bb", "width": 160}], "name": "BTS", "popularity": 92, "type": "artist", "uri": "spotify:artist:3Nrfpe0tUJi4K4DXYWgMUX"}, {"external_urls": {"spotify": "https://open.spotify.com/artist/6vWDO969PvNqNYHIOW5v0m"}, "followers": {"href": null, "total": 32880422}, "genres": ["dance pop", "pop", "r&b"], "href": "https://api.spotify.com/v1/artists/6vWDO969PvNqNYHIOW5v0m", "id": "6vWDO969PvNqNYHIOW5v0m", "images": [{"height": 640, "url": "https://i.scdn.co/image/ab6761610000e5eb676338904deb80cffb568216", "width": 640}, {"height": 320, "url": "https://i.scdn.co/image/ab67616100005174676338904deb80cffb568216", "width": 320}, {"height": 160, "url": "https://i.scdn.co/image/ab6761610000f178676338904deb80cffb568216", "width": 160}], "name": "Beyonc\u00e9", "popularity": 87, "type": "artist", "uri": "spotify:artist:6vWDO969PvNqNYHIOW5v0m"}, {"external_urls": {"spotify": "https://open.spotify.com/artist/6LuN9FCkKOj5PcnpouEgny"}, "followers": {"href": null, "total": 15660480}, "genres": ["pop", "pop r&b"], "href": "https://api.spotify.com/v1/artists/6LuN9FCkKOj5PcnpouEgny", "id": "6LuN9FCkKOj5PcnpouEgny", "images": [{"height": 640, "url": "https://i.scdn.co/image/ab6761610000e5eb31072db9da0311ecfabe96bf", "width": 640}, {"height": 320, "url": "https://i.scdn.co/image/ab6761610000517431072db9da0311ecfabe96bf", "width": 320}, {"height": 160, "url": "https://i.scdn.co/image/ab6761610000f17831072db9da0311ecfabe96bf", "width": 160}], "name": "Khalid", "popularity": 85, "type": "artist", "uri": "spotify:artist:6LuN9FCkKOj5PcnpouEgny"}, {"external_urls": {"spotify": "https://open.spotify.com/artist/6eUKZXaKkcviH0Ku9w2n3V"}, "followers": {"href": null, "total": 105957227}, "genres": ["pop", "uk pop"], "href": "https://api.spotify.com/v1/artists/6eUKZXaKkcviH0Ku9w2n3V", "id": "6eUKZXaKkcviH0Ku9w2n3V", "images": [{"height": 640, "url": "https://i.scdn.co/image/ab6761610000e5eb12a2ef08d00dd7451a6dbed6", "width": 640}, {"height": 320, "url": "https://i.scdn.co/image/ab6761610000517412a2ef08d00dd7451a6dbed6", "width": 320}, {"height": 160, "url": "https://i.scdn.co/image/ab6761610000f17812a2ef08d00dd7451a6dbed6", "width": 160}], "name": "Ed Sheeran", "popularity": 90, "type": "artist", "uri": "spotify:artist:6eUKZXaKkcviH0Ku9w2n3V"}, {"external_urls": {"spotify": "https://open.spotify.com/artist/2wY79sveU1sp5g7SokKOiI"}, "followers": {"href": null, "total": 20949616}, "genres": ["dance pop", "pop", "uk pop"], "href": "https://api.spotify.com/v1/artists/2wY79sveU1sp5g7SokKOiI", "id": "2wY79sveU1sp5g7SokKOiI", "images": [{"height": 640, "url": "https://i.scdn.co/image/ab6761610000e5eb10ca40ea0b0b5082dba0ff75", "width": 640}, {"height": 320, "url": "https://i.scdn.co/image/ab6761610000517410ca40ea0b0b5082dba0ff75", "width": 320}, {"height": 160, "url": "https://i.scdn.co/image/ab6761610000f17810ca40ea0b0b5082dba0ff75", "width": 160}], "name": "Sam Smith", "popularity": 88, "type": "artist", "uri": "spotify:artist:2wY79sveU1sp5g7SokKOiI"}, {"external_urls": {"spotify": "https://open.spotify.com/artist/2h93pZq0e7k5yf4dywlkpM"}, "followers": {"href": null, "total": 10313997}, "genres": ["hip hop", "lgbtq+ hip hop", "neo soul", "pop"], "href": "https://api.spotify.com/v1/artists/2h93pZq0e7k5yf4dywlkpM", "id": "2h93pZq0e7k5yf4dywlkpM", "images": [{"height": 640, "url": "https://i.scdn.co/image/ab6761610000e5ebfbc3faec4a370d8393bee7f1", "width": 640}, {"height": 320, "url": "https://i.scdn.co/image/ab67616100005174fbc3faec4a370d8393bee7f1", "width": 320}, {"height": 160, "url": "https://i.scdn.co/image/ab6761610000f178fbc3faec4a370d8393bee7f1", "width": 160}], "name": "Frank Ocean", "popularity": 83, "type": "artist", "uri": "spotify:artist:2h93pZq0e7k5yf4dywlkpM"}, {"external_urls": {"spotify": "https://open.spotify.com/artist/1GxkXlMwML1oSg5eLPiAz3"}, "followers": {"href": null, "total": 5560143}, "genres": ["adult standards", "canadian pop", "jazz pop", "lounge"], "href": "https://api.spotify.com/v1/artists/1GxkXlMwML1oSg5eLPiAz3", "id": "1GxkXlMwML1oSg5eLPiAz3", "images": [{"height": 640, "url": "https://i.scdn.co/image/ab6761610000e5ebef8cf61fea4923d2bde68200", "width": 640}, {"height": 320, "url": "https://i.scdn.co/image/ab67616100005174ef8cf61fea4923d2bde68200", "width": 320}, {"height": 160, "url": "https://i.scdn.co/image/ab6761610000f178ef8cf61fea4923d2bde68200", "width": 160}], "name": "Michael Bubl\u00e9", "popularity": 85, "type": "artist", "uri": "spotify:artist:1GxkXlMwML1oSg5eLPiAz3"}, {"external_urls": {"spotify": "https://open.spotify.com/artist/3tlXnStJ1fFhdScmQeLpuG"}, "followers": {"href": null, "total": 3027289}, "genres": ["dmv rap", "hip hop", "pop", "r&b", "rap"], "href": "https://api.spotify.com/v1/artists/3tlXnStJ1fFhdScmQeLpuG", "id": "3tlXnStJ1fFhdScmQeLpuG", "images": [{"height": 640, "url": "https://i.scdn.co/image/ab6761610000e5eb2749cce858c97642feda7a92", "width": 640}, {"height": 320, "url": "https://i.scdn.co/image/ab676161000051742749cce858c97642feda7a92", "width": 320}, {"height": 160, "url": "https://i.scdn.co/image/ab6761610000f1782749cce858c97642feda7a92", "width": 160}], "name": "Brent Faiyaz", "popularity": 81, "type": "artist", "uri": "spotify:artist:3tlXnStJ1fFhdScmQeLpuG"}, {"external_urls": {"spotify": "https://open.spotify.com/artist/77SW9BnxLY8rJ0RciFqkHh"}, "followers": {"href": null, "total": 10941923}, "genres": ["modern alternative rock", "modern rock", "pop", "shimmer pop"], "href": "https://api.spotify.com/v1/artists/77SW9BnxLY8rJ0RciFqkHh", "id": "77SW9BnxLY8rJ0RciFqkHh", "images": [{"height": 640, "url": "https://i.scdn.co/image/ab6761610000e5ebdf0b5ac84376a0a4b2166816", "width": 640}, {"height": 320, "url": "https://i.scdn.co/image/ab67616100005174df0b5ac84376a0a4b2166816", "width": 320}, {"height": 160, "url": "https://i.scdn.co/image/ab6761610000f178df0b5ac84376a0a4b2166816", "width": 160}], "name": "The Neighbourhood", "popularity": 85, "type": "artist", "uri": "spotify:artist:77SW9BnxLY8rJ0RciFqkHh"}], "limit": 25, "next": "https://api.spotify.com/v1/search?query=genre%3Apop&type=artist&offset=25&limit=25", "offset": 0, "previous": null, "total": 10000}}